…
Examples of a few things we can do with this

0)  Extract just one of the datasets

<!-- end list -->

``` r
# based on row number
parameters$data[[1]]
```

    ## # A tibble: 100 x 2
    ##    tacos_eaten points_scored
    ##          <dbl>         <dbl>
    ##  1        5.92          7.47
    ##  2        5.78         16.7 
    ##  3        5.07          8.93
    ##  4        3.01          9.10
    ##  5        5.62          9.50
    ##  6        4.94         13.6 
    ##  7        4.84          9.63
    ##  8        3.53          9.81
    ##  9        4.52          6.59
    ## 10        5.42          8.38
    ## # … with 90 more rows

``` r
# based on parameters
parameters %>% 
   filter(mean_tacos == 5, sd_tacos == 1) %>% 
   pull(data) %>% 
   .[[1]]
```

    ## # A tibble: 100 x 2
    ##    tacos_eaten points_scored
    ##          <dbl>         <dbl>
    ##  1        5.92          7.47
    ##  2        5.78         16.7 
    ##  3        5.07          8.93
    ##  4        3.01          9.10
    ##  5        5.62          9.50
    ##  6        4.94         13.6 
    ##  7        4.84          9.63
    ##  8        3.53          9.81
    ##  9        4.52          6.59
    ## 10        5.42          8.38
    ## # … with 90 more rows
…
