…
results$item_10 <- 
    simdata(
        Theta = matrix(results$theta_10, nrow = n_students, ncol = dim),
        a = matrix(1, nrow = 1),
        d = matrix(0, ncol = 1),
        guess = 0,
        itemtype = "3PL",
        returnList = FALSE
    )[, 1]

# check it out
results %>% select(starts_with("theta"), item_9, item_10)
```

    ## # A tibble: 100,000 x 4
    ##    theta_1to9 theta_10 item_9 item_10
    ##         <dbl>    <dbl>  <dbl>   <dbl>
    ##  1     -0.626   -0.626      0       0
    ##  2      0.184    1.18       1       1
    ##  3     -0.836    0.164      1       1
    ##  4      1.60     1.60       0       0
    ##  5      0.330    0.330      0       1
    ##  6     -0.820   -0.820      0       1
    ##  7      0.487    1.49       1       0
    ##  8      0.738    1.74       1       1
    ##  9      0.576    1.58       1       1
    ## 10     -0.305    0.695      1       1
    ## # … with 99,990 more rows
…
